/AUTOSAR/EcucDefs/Os,,,1
/AUTOSAR/EcucDefs/Os/OsOS,OS,,1
/AUTOSAR/EcucDefs/Os/OsOS/OsScalabilityClass,SC,ENUM,0,1
/AUTOSAR/EcucDefs/Os/OsOS/OsStackMonitoring,STACKMONITORING,BOOLEAN,1
/AUTOSAR/EcucDefs/Os/OsOS/OsStatus,STATUS,ENUM,1
/AUTOSAR/EcucDefs/Os/OsOS/OsUseGetServiceId,GETSERVICEID,BOOLEAN,1
/AUTOSAR/EcucDefs/Os/OsOS/OsUseParameterAccess,PARAMETERACCESS,BOOLEAN,1
/AUTOSAR/EcucDefs/Os/OsOS/OsHooks,HOOK,,1
/AUTOSAR/EcucDefs/Os/OsOS/OsHooks/OsStartupHook,STARTUPHOOK,BOOLEAN,1
/AUTOSAR/EcucDefs/Os/OsOS/OsHooks/OsShutdownHook,SHUTDOWNHOOK,BOOLEAN,1
/AUTOSAR/EcucDefs/Os/OsOS/OsHooks/OsPreTaskHook,PRETASKHOOK,BOOLEAN,1
/AUTOSAR/EcucDefs/Os/OsOS/OsHooks/OsPostTaskHook,POSTTASKHOOK,BOOLEAN,1
/AUTOSAR/EcucDefs/Os/OsOS/OsHooks/OsErrorHook,ERRORHOOK,BOOLEAN,1
/AUTOSAR/EcucDefs/Os/OsOS/OsHooks/OsProtectionHook,PROTECTIONHOOK,BOOLEAN,0,1
/AUTOSAR/EcucDefs/Os/OsOS/OsOsStack,OSTK,,0,1
/AUTOSAR/EcucDefs/Os/OsOS/OsOsStack/OsOsStackSize,STKSZ,INT,1
/AUTOSAR/EcucDefs/Os/OsOS/OsOsStack/OsOsStackStartAddress,STK,+STRING,0,1
/AUTOSAR/EcucDefs/Os/OsOS/OsHookStack,HSTK,,0,1
/AUTOSAR/EcucDefs/Os/OsOS/OsHookStack/OsHookStackSize,STKSZ,INT,1
/AUTOSAR/EcucDefs/Os/OsInclude,XINCLUDE,,0,*
/AUTOSAR/EcucDefs/Os/OsInclude/OsIncludeFileName,XINCNAME,+INCLUDE,0,*
/AUTOSAR/EcucDefs/Os/OsAppMode,APP,,1,*
/AUTOSAR/EcucDefs/Os/OsTask,TSK,,0,*
/AUTOSAR/EcucDefs/Os/OsTask/OsTaskActivation,ACTIVATION,INT,1
/AUTOSAR/EcucDefs/Os/OsTask/OsTaskPriority,PRIORITY,INT,1
/AUTOSAR/EcucDefs/Os/OsTask/OsTaskSchedule,SCHEDULE,ENUM,1
/AUTOSAR/EcucDefs/Os/OsTask/OsTaskEventRef,EVT_LIST,REF,0,*
/AUTOSAR/EcucDefs/Os/OsTask/OsTaskResourceRef,RES_LIST,REF,0,*
/AUTOSAR/EcucDefs/Os/OsTask/OsTaskStackSize,STKSZ,INT,0,1
/AUTOSAR/EcucDefs/Os/OsTask/OsTaskStackStartAddress,STK,+STRING,0,1
/AUTOSAR/EcucDefs/Os/OsTask/OsTaskAutostart,TSK.AUTOSTART,,0,1
/AUTOSAR/EcucDefs/Os/OsTask/OsTaskAutostart/OsTaskAppModeRef,APP_LIST,REF,1,*
/AUTOSAR/EcucDefs/Os/OsIsr,ISR,,0,*
/AUTOSAR/EcucDefs/Os/OsIsr/OsIsrCategory,CATEGORY,ENUM,1
/AUTOSAR/EcucDefs/Os/OsIsr/OsIsrInterruptNumber,INTNO,INT,1
/AUTOSAR/EcucDefs/Os/OsIsr/OsIsrInterruptPriority,INTPRI,INT,1
/AUTOSAR/EcucDefs/Os/OsIsr/OsIsrResourceRef,RES_LIST,REF,0,*
/AUTOSAR/EcucDefs/Os/OsIsr/OsIsrInterruptTrigger,INTATR,INT,0,1
/AUTOSAR/EcucDefs/Os/OsIsr/OsIsrStackSize,STKSZ,INT,0,1
/AUTOSAR/EcucDefs/Os/OsEvent,EVT,,0,*
/AUTOSAR/EcucDefs/Os/OsEvent/OsEventMask,MASK,INT,0,1
/AUTOSAR/EcucDefs/Os/OsResource,RES,,0,*
/AUTOSAR/EcucDefs/Os/OsResource/OsResourceProperty,RESATR,ENUM,1
/AUTOSAR/EcucDefs/Os/OsResource/OsResourceLinkedResourceRef,LINKEDRESID,REF,0,1
/AUTOSAR/EcucDefs/Os/OsCounter,CNT,,0,*
/AUTOSAR/EcucDefs/Os/OsCounter/OsCounterMaxAllowedValue,MAXALLOWED,INT,1
/AUTOSAR/EcucDefs/Os/OsCounter/OsCounterMinCycle,MINCYCLE,INT,1
/AUTOSAR/EcucDefs/Os/OsCounter/OsCounterTicksPerBase,TICKSPERBASE,INT,1
/AUTOSAR/EcucDefs/Os/OsCounter/OsCounterType,CNTATR,ENUM,1
/AUTOSAR/EcucDefs/Os/OsCounter/OsSecondsPerTick,SECONDSPERTICK,FLOAT,0,1
/AUTOSAR/EcucDefs/Os/OsCounter/OsCounterIsrRef,ISRID,REF,0,1
/AUTOSAR/EcucDefs/Os/OsAlarm,ALM,,0,*
/AUTOSAR/EcucDefs/Os/OsAlarm/OsAlarmCounterRef,CNTID,REF,1
/AUTOSAR/EcucDefs/Os/OsAlarm/OsAlarmAction,ALM.ACTION,,1
/AUTOSAR/EcucDefs/Os/OsAlarm/OsAlarmAction/OsAlarmActivateTask,ALM.ACTION.ACTIVATETASK,,0,1
/AUTOSAR/EcucDefs/Os/OsAlarm/OsAlarmAction/OsAlarmActivateTask/OsAlarmActivateTaskRef,TSKID,REF,1
/AUTOSAR/EcucDefs/Os/OsAlarm/OsAlarmAction/OsAlarmCallback,ALM.ACTION.CALLBACK,,0,1
/AUTOSAR/EcucDefs/Os/OsAlarm/OsAlarmAction/OsAlarmCallback/OsAlarmCallbackName,CALLBACK,FUNCTION,1
/AUTOSAR/EcucDefs/Os/OsAlarm/OsAlarmAction/OsAlarmIncrementCounter,ALM.ACTION.INCREMENTCOUNTER,,0,1
/AUTOSAR/EcucDefs/Os/OsAlarm/OsAlarmAction/OsAlarmIncrementCounter/OsAlarmIncrementCounterRef,INCID,REF,1
/AUTOSAR/EcucDefs/Os/OsAlarm/OsAlarmAction/OsAlarmSetEvent,ALM.ACTION.SETEVENT,,0,1
/AUTOSAR/EcucDefs/Os/OsAlarm/OsAlarmAction/OsAlarmSetEvent/OsAlarmSetEventRef,EVTID,REF,1
/AUTOSAR/EcucDefs/Os/OsAlarm/OsAlarmAction/OsAlarmSetEvent/OsAlarmSetEventTaskRef,TSKID,REF,1
/AUTOSAR/EcucDefs/Os/OsAlarm/OsAlarmAutostart,ALM.AUTOSTART,,0,1
/AUTOSAR/EcucDefs/Os/OsAlarm/OsAlarmAutostart/OsAlarmAlarmTime,ALARMTIME,INT,1
/AUTOSAR/EcucDefs/Os/OsAlarm/OsAlarmAutostart/OsAlarmAppModeRef,APP_LIST,REF,1,*
/AUTOSAR/EcucDefs/Os/OsAlarm/OsAlarmAutostart/OsAlarmCycleTime,CYCLETIME,INT,1
/AUTOSAR/EcucDefs/Os/OsAlarm/OsAlarmAutostart/OsAlarmAutostartType,TYPE,ENUM,1
/AUTOSAR/EcucDefs/Os/OsScheduleTable,SCHTBL,,0,*
/AUTOSAR/EcucDefs/Os/OsScheduleTable/OsScheduleTableDuration,DURATIONTICK,INT,1
/AUTOSAR/EcucDefs/Os/OsScheduleTable/OsScheduleTableRepeating,REPEAT,BOOLEAN,1
/AUTOSAR/EcucDefs/Os/OsScheduleTable/OsScheduleTableCounterRef,CNTID,REF,1
/AUTOSAR/EcucDefs/Os/OsScheduleTable/OsScheduleTableAutostart,SCHTBL.AUTOSTART,,0,1
/AUTOSAR/EcucDefs/Os/OsScheduleTable/OsScheduleTableAutostart/OsScheduleTableStartValue,STARTTICK,INT,1
/AUTOSAR/EcucDefs/Os/OsScheduleTable/OsScheduleTableAutostart/OsScheduleTableAutostartType,TYPE,ENUM,1
/AUTOSAR/EcucDefs/Os/OsScheduleTable/OsScheduleTableAutostart/OsScheduleTableAppModeRef,APP_LIST,REF,1,*
/AUTOSAR/EcucDefs/Os/OsScheduleTable/OsScheduleTableExpiryPoint,SCHTBL.EXPPT,,1,*
/AUTOSAR/EcucDefs/Os/OsScheduleTable/OsScheduleTableExpiryPoint/OsScheduleTblExpPointOffset,OFFSET,INT,1
/AUTOSAR/EcucDefs/Os/OsScheduleTable/OsScheduleTableExpiryPoint/OsScheduleTableEventSetting,SCHTBL.EXPPT.SETEVENT,,0,*
/AUTOSAR/EcucDefs/Os/OsScheduleTable/OsScheduleTableExpiryPoint/OsScheduleTableEventSetting/OsScheduleTableSetEventRef,EVTID,REF,1
/AUTOSAR/EcucDefs/Os/OsScheduleTable/OsScheduleTableExpiryPoint/OsScheduleTableEventSetting/OsScheduleTableSetEventTaskRef,TSKID,REF,1
/AUTOSAR/EcucDefs/Os/OsScheduleTable/OsScheduleTableExpiryPoint/OsScheduleTableTaskActivation,SCHTBL.EXPPT.ACTIVATETASK,,0,*
/AUTOSAR/EcucDefs/Os/OsScheduleTable/OsScheduleTableExpiryPoint/OsScheduleTableTaskActivation/OsScheduleTableActivateTaskRef,TSKID,REF,1
/AUTOSAR/EcucDefs/Os/OsScheduleTable/OsScheduleTableSync,SCHTBL.SYNC,,0,1
/AUTOSAR/EcucDefs/Os/OsScheduleTable/OsScheduleTableSync/OsScheduleTblSyncStrategy,STRATEGY,ENUM,1
